<?xml version="1.0" encoding="utf-8"?>
<!-- Generator: Adobe Illustrator 24.0.1, SVG Export Plug-In . SVG Version: 6.00 Build 0)  -->
<svg version="1.1" id="Layer_1" xmlns="http://www.w3.org/2000/svg" xmlns:xlink="http://www.w3.org/1999/xlink" x="0px" y="0px"
	 viewBox="0 0 512 512" style="enable-background:new 0 0 512 512;" xml:space="preserve">
<style type="text/css">
	.st0{fill:#FFFFFF;}
</style>
<g>
	<g>
		<path class="st0" d="M508.5,86.5C508.5,38.8,469.7,0,422,0c-47.7,0-86.5,38.8-86.5,86.5c0,5.9,0.6,11.7,1.7,17.3l-185.4,98.5
			c-15.7-16-37.6-26-61.8-26c-47.7,0-86.5,38.8-86.5,86.5c0,47.7,38.8,86.5,86.5,86.5c22.3,0,42.7-8.5,58-22.4l124.5,76.1
			c-1.9,7.1-3,14.7-3,22.4c0,47.7,38.8,86.5,86.5,86.5s86.5-38.8,86.5-86.5c0-33.3-19-62.3-46.7-76.8l34.2-176.1
			C474,168.5,508.5,131.5,508.5,86.5z M90,295c-17.7,0-32.2-14.4-32.2-32.2c0-17.7,14.4-32.2,32.2-32.2s32.2,14.4,32.2,32.2
			S107.8,295,90,295z M173.6,285.2c1.9-7.1,3-14.7,3-22.4c0-5.9-0.6-11.7-1.7-17.3L360.2,147c6.4,6.5,13.8,12,21.9,16.3l-34.2,176.1
			c-19.1,1.8-36.4,9.8-49.8,22L173.6,285.2z M356.1,457.6c-17.7,0-32.2-14.4-32.2-32.2s14.4-32.2,32.2-32.2
			c17.7,0,32.2,14.4,32.2,32.2C388.3,443.2,373.9,457.6,356.1,457.6z M389.8,86.5c0-17.7,14.4-32.2,32.2-32.2
			c17.7,0,32.2,14.4,32.2,32.2c0,17.7-14.4,32.2-32.2,32.2C404.2,118.7,389.8,104.2,389.8,86.5z"/>
	</g>
</g>
</svg>
