<?xml version="1.0" encoding="utf-8"?>
<!-- Generator: Adobe Illustrator 24.0.1, SVG Export Plug-In . SVG Version: 6.00 Build 0)  -->
<svg version="1.1" id="Capa_1" xmlns="http://www.w3.org/2000/svg" xmlns:xlink="http://www.w3.org/1999/xlink" x="0px" y="0px"
	 viewBox="0 0 512 512" style="enable-background:new 0 0 512 512;" xml:space="preserve">
<style type="text/css">
	.st0{fill:#FFFFFF;}
</style>
<g>
	<g>
		<path class="st0" d="M33.1,508.8L182,360.2c34.8,28.2,79.1,45.3,127.3,45.3C421,405.6,512,314.7,512.1,203
			C512.2,91.2,421.4,0.2,309.6,0.1S106.9,90.9,106.8,202.6c0,48.2,16.9,92.5,45.1,127.3L3,478.6c-4.2,4.2-4.2,10.9,0,15.1l15.1,15.1
			C22.2,512.9,29,512.9,33.1,508.8z M149.5,202.7c0.1-88.2,71.9-159.9,160.1-159.9s159.9,71.9,159.9,160.1
			c-0.1,88.2-71.9,159.9-160.1,159.9C221.1,362.7,149.4,290.9,149.5,202.7z"/>
	</g>
</g>
</svg>
